-------------------------------------------------------------------------------
Test set: it.uniroma2.art.exodus.xls_flow.AppTest
-------------------------------------------------------------------------------
Tests run: 1, Failures: 0, Errors: 0, Skipped: 0, Time elapsed: 0.003 sec - in it.uniroma2.art.exodus.xls_flow.AppTest
