it\uniroma2\art\exodus\dummy_flow\PropertiesManager.class
it\uniroma2\art\exodus\dummy_flow\App.class
it\uniroma2\art\exodus\dummy_flow\DummyFlow.class
it\uniroma2\art\exodus\dummy_flow\activator\DummyFlowActivator.class
