it\uniroma2\art\exodus\xls_flow\FieldType.class
javax\xml\stream\FactoryFinder$1.class
javax\xml\stream\SecuritySupport$4.class
javax\xml\stream\SecuritySupport$3.class
it\uniroma2\art\exodus\xls_flow\activator\XlsFlowActivator.class
javax\xml\parsers\DocumentBuilder.class
javax\xml\stream\SecuritySupport.class
it\uniroma2\art\exodus\xls_flow\App.class
it\uniroma2\art\exodus\xls_flow\PropertyType.class
javax\xml\stream\XMLEventFactory.class
javax\xml\stream\SecuritySupport$1.class
it\uniroma2\art\exodus\xls_flow\OntologyHandler.class
it\uniroma2\art\exodus\xls_flow\XlsFlow.class
javax\xml\stream\FactoryFinder.class
javax\xml\stream\SecuritySupport$5.class
it\uniroma2\art\exodus\xls_flow\ExcelReader.class
it\uniroma2\art\exodus\xls_flow\SVOTriple.class
javax\xml\stream\SecuritySupport$2.class
