-------------------------------------------------------------------------------
Test set: it.uniroma2.art.exodus.dummy_flow.AppTest
-------------------------------------------------------------------------------
Tests run: 1, Failures: 0, Errors: 0, Skipped: 0, Time elapsed: 0.011 sec - in it.uniroma2.art.exodus.dummy_flow.AppTest
